{
    "version": "1",
    "cognitoConfig": {
        "identityPoolName": "profesnextapp38d43a72_identitypool_38d43a72",
        "allowUnauthenticatedIdentities": false,
        "resourceNameTruncated": "profes38d43a72",
        "userPoolName": "profesnextapp38d43a72_userpool_38d43a72",
        "autoVerifiedAttributes": ["email"],
        "mfaConfiguration": "OFF",
        "mfaTypes": ["SMS Text Message"],
        "smsAuthenticationMessage": "Your authentication code is {####}",
        "smsVerificationMessage": "Your verification code is {####}",
        "emailVerificationSubject": "Your verification code",
        "emailVerificationMessage": "Your verification code is {####}",
        "defaultPasswordPolicy": false,
        "passwordPolicyMinLength": 8,
        "passwordPolicyCharacters": [],
        "requiredAttributes": ["email"],
        "aliasAttributes": [],
        "userpoolClientGenerateSecret": false,
        "userpoolClientRefreshTokenValidity": 30,
        "userpoolClientWriteAttributes": ["email"],
        "userpoolClientReadAttributes": ["email"],
        "userpoolClientLambdaRole": "profes38d43a72_userpoolclient_lambda_role",
        "userpoolClientSetAttributes": false,
        "sharedId": "38d43a72",
        "resourceName": "profesnextapp38d43a72",
        "authSelections": "identityPoolAndUserPool",
        "useDefault": "defaultSocial",
        "hostedUI": true,
        "usernameAttributes": ["email"],
        "hostedUIDomainName": "profesnextapp38d43a72-38d43a72",
        "authProvidersUserPool": ["Facebook", "Google"],
        "hostedUIProviderMeta": "[{\"ProviderName\":\"Facebook\",\"authorize_scopes\":\"email,public_profile\",\"AttributeMapping\":{\"email\":\"email\",\"username\":\"id\"}},{\"ProviderName\":\"Google\",\"authorize_scopes\":\"openid email profile\",\"AttributeMapping\":{\"email\":\"email\",\"username\":\"sub\"}}]",
        "oAuthMetadata": "{\"AllowedOAuthFlows\":[\"code\"],\"AllowedOAuthScopes\":[\"phone\",\"email\",\"openid\",\"profile\",\"aws.cognito.signin.user.admin\"],\"CallbackURLs\":[\"http://localhost:3000/\"],\"LogoutURLs\":[\"http://localhost:3000/\"]}",
        "userPoolGroupList": [],
        "serviceName": "Cognito",
        "usernameCaseSensitive": false,
        "useEnabledMfas": true
    }
}
